module gitlab.com/hugovantighem/eventsourcing101

go 1.14

require (
	github.com/davecgh/go-spew v1.1.1 // indirect
	github.com/google/uuid v1.3.0
	github.com/kr/pretty v0.1.0 // indirect
	github.com/mattn/go-sqlite3 v1.14.8
	github.com/stretchr/testify v1.6.1
	gopkg.in/check.v1 v1.0.0-20180628173108-788fd7840127 // indirect
)
